13:14:53    11-30-2009    Error occurred with connection to ticker graphics engine
13:20:29    11-30-2009    Error occurred with connection to ticker graphics engine
13:23:23    11-30-2009    Error occurred with connection to ticker graphics engine
13:30:03    11-30-2009    Error occurred with connection to ticker graphics engine
13:35:45    11-30-2009    Error occurred with connection to ticker graphics engine
13:37:28    11-30-2009    Error occurred with connection to ticker graphics engine
13:41:27    11-30-2009    Error occurred with connection to ticker graphics engine
13:48:58    11-30-2009    Error occurred with connection to ticker graphics engine
13:57:26    11-30-2009    Error occurred while trying to update data for ticker playlist entry #4
13:57:32    11-30-2009    Error encountered while trying to locate scheduled bug playlist.
14:00:26    11-30-2009    Error encountered while trying to locate scheduled bug playlist.
14:03:33    11-30-2009    Error occurred with connection to ticker graphics engine
